%YAML 1.1
%TAG !u! tag:unity3d.com,2011:
--- !u!1045 &1
EditorBuildSettings:
  m_ObjectHideFlags: 0
  serializedVersion: 2
  m_Scenes:
  - enabled: 1
    path: Assets/Game Files/Scenes/Start Menu.unity
    guid: bab0dc2b25ef5ce47b2041cf8878c499
  - enabled: 1
    path: Assets/Game Files/Scenes/Game.unity
    guid: 2cda990e2423bbf4892e6590ba056729
  - enabled: 1
    path: Assets/Game Files/Scenes/Game Over.unity
    guid: 3e4370ffd848d0048894d5fac139cd98
  - enabled: 1
    path: Assets/Game Files/Scenes/Lvl1.unity
    guid: d2b78b6020370f445b99b6658c0b40e0
  m_configObjects: {}
